…
``` r
df[c("Age", "Weight", "Height")]
```

    ## # A tibble: 986 × 3
    ##      Age Weight Height
    ##    <dbl>  <dbl>  <dbl>
    ##  1    45     57    155
    ##  2    60     73    180
    ##  3    36     59    158
    ##  4    52     93    183
    ##  5    38     88    166
    ##  6    30     69    160
    ##  7    33     54    150
    ##  8    23     79    181
    ##  9    48     74    169
    ## 10    38     93    182
    ## # ℹ 976 more rows
