…
    ## Rows: 986 Columns: 11
    ## ── Column specification ────────────────────────────────────────────────────────
    ## Delimiter: ","
    ## dbl (11): Age, Diabetes, BloodPressureProblems, AnyTransplants, AnyChronicDi...
    ## 
    ## ℹ Use `spec()` to retrieve the full column specification for this data.
    ## ℹ Specify the column types or set `show_col_types = FALSE` to quiet this message.

``` r
df = Medicalpremium
df
```

    ## # A tibble: 986 × 11
    ##      Age Diabetes BloodPressureProblems AnyTransplants AnyChronicDiseases Height
    ##    <dbl>    <dbl>                 <dbl>          <dbl>              <dbl>  <dbl>
    ##  1    45        0                     0              0                  0    155
    ##  2    60        1                     0              0                  0    180
    ##  3    36        1                     1              0                  0    158
    ##  4    52        1                     1              0                  1    183
    ##  5    38        0                     0              0                  1    166
    ##  6    30        0                     0              0                  0    160
    ##  7    33        0                     0              0                  0    150
    ##  8    23        0                     0              0                  0    181
    ##  9    48        1                     0              0                  0    169
    ## 10    38        0                     0              0                  0    182
    ## # ℹ 976 more rows
    ## # ℹ 5 more variables: Weight <dbl>, KnownAllergies <dbl>,
    ## #   HistoryOfCancerInFamily <dbl>, NumberOfMajorSurgeries <dbl>,
    ## #   PremiumPrice <dbl>
…
``` r
dt = df
```

## feature engineering

``` r
dt = dt %>%
  mutate(BMI = df$Weight/((df$Height/100)^2)) %>%
  mutate(BMI_cat = cut(BMI, breaks=c(-Inf, 18.5, 24.5, 29.9, 34.9, Inf), 
                       labels=c("underweight", "normal", "overweight", "obese", "Extreme")))
dt
```

    ## # A tibble: 986 × 13
    ##      Age Diabetes BloodPressureProblems AnyTransplants AnyChronicDiseases Height
    ##    <dbl> <fct>    <fct>                 <fct>          <fct>               <dbl>
    ##  1    45 0        0                     0              0                     155
    ##  2    60 1        0                     0              0                     180
    ##  3    36 1        1                     0              0                     158
    ##  4    52 1        1                     0              1                     183
    ##  5    38 0        0                     0              1                     166
    ##  6    30 0        0                     0              0                     160
    ##  7    33 0        0                     0              0                     150
    ##  8    23 0        0                     0              0                     181
    ##  9    48 1        0                     0              0                     169
    ## 10    38 0        0                     0              0                     182
    ## # ℹ 976 more rows
    ## # ℹ 7 more variables: Weight <dbl>, KnownAllergies <fct>,
    ## #   HistoryOfCancerInFamily <fct>, NumberOfMajorSurgeries <fct>,
    ## #   PremiumPrice <dbl>, BMI <dbl>, BMI_cat <fct>
…
